{
    "name": "flag",
    "title": "Flag",
    "category": "stratum-blocks",
    "acf": {
        "mode": "preview",
        "renderCallback": "\\Stratum\\Component::acfRenderCallback"
    },
    "attributes": {
        "align": {
            "type": "string",
            "default": "wide"
        }
    },
    "supports": {
        "align": [
            "wide",
            "full"
        ],
        "anchor": true,
        "color": {
            "text": false,
            "background": true,
            "gradient": false
        }
    },
    "stratum": {
        "minifyHTML": true,
        "render": true,
        "registerFields": false,
        "fields": {
            "tag": {
                "type": "text"
            },
            "heading": {
                "type": "text"
            },
            "content": {
                "_register": false,
                "type": "wysiwyg"
            },
            "media": {
                "_register": false,
                "type": [
                    "image",
                    "embed"
                ]
            },
            "reverse": {
                "type": "bool"
            }
        },
        "variations": [
            {
                "classes": [
                    "alignwide",
                    "has-grey-background-color"
                ],
                "media": "embed"
            },
            {
                "classes": [
                    "alignfull",
                    "has-grey-background-color"
                ],
                "media": "embed"
            }
        ]
    }
}