<svg width="27" height="32" viewBox="0 0 27 32" xmlns="http://www.w3.org/2000/svg">
<path d="M13.1579 9.2C15.6984 9.2 17.7579 7.14051 17.7579 4.6C17.7579 2.05949 15.6984 0 13.1579 0C10.6174 0 8.55786 2.05949 8.55786 4.6C8.5604 7.13946 10.6184 9.19746 13.1579 9.2ZM13.1579 1.53333C14.8515 1.53333 16.2245 2.90633 16.2245 4.6C16.2245 6.29367 14.8515 7.66667 13.1579 7.66667C11.4642 7.66667 10.0912 6.29367 10.0912 4.6C10.0912 2.90633 11.4642 1.53333 13.1579 1.53333Z"/>
<path d="M23.8352 9.9728H23.8229L15.7729 10.6958C15.4985 10.7208 15.2237 10.7333 14.9488 10.7333H11.3669C11.0924 10.7333 10.8182 10.7211 10.5443 10.6965L2.48045 9.9728C1.21401 9.8733 0.106686 10.8193 0.00718268 12.0857C-0.0923206 13.3522 0.853672 14.4595 2.12012 14.559L8.62682 15.1493C9.02161 15.185 9.32411 15.5158 9.32448 15.9122V17.6755C9.32475 18.0588 9.25298 18.4388 9.11288 18.7956L5.42368 28.1911C4.90944 29.353 5.43444 30.7117 6.5963 31.226C7.75816 31.7402 9.11691 31.2152 9.63115 30.0533L13.1471 21.4567L16.696 30.0763C17.2252 31.209 18.5623 31.7115 19.7065 31.2078C20.8507 30.704 21.383 29.3785 20.905 28.2233L17.2028 18.7933C17.063 18.4369 16.9913 18.0575 16.9912 17.6747V15.9114C16.9915 15.515 17.294 15.1842 17.6888 15.1486L24.1848 14.559C25.4514 14.4625 26.4 13.3574 26.3035 12.0907C26.2069 10.8241 25.1018 9.87549 23.8352 9.97203V9.9728ZM24.0568 13.0333L17.5501 13.6237C16.3634 13.7258 15.4534 14.7211 15.4578 15.9122V17.6755C15.4575 18.2509 15.5654 18.8213 15.776 19.3568L19.4913 28.8167C19.6718 29.1997 19.5078 29.6565 19.1248 29.8371C18.7418 30.0177 18.2849 29.8536 18.1044 29.4707L14.5631 20.874C14.3283 20.305 13.7734 19.9338 13.1578 19.9338C12.5422 19.9338 11.9874 20.305 11.7525 20.874L8.22125 29.4477C8.11146 29.7086 7.86683 29.8878 7.58494 29.9138C7.30306 29.9397 7.0298 29.8083 6.87418 29.5718C6.71855 29.3353 6.70589 29.0324 6.84125 28.7837L10.5435 19.3537C10.7526 18.8187 10.8592 18.2492 10.8578 17.6747V15.9114C10.863 14.7197 9.95286 13.7236 8.76558 13.6214L2.24815 13.0333C1.82473 13.0035 1.50568 12.636 1.53553 12.2126C1.56538 11.7892 1.93283 11.4701 2.35625 11.5L10.4062 12.223C10.7252 12.2516 11.0449 12.2659 11.3654 12.2659H14.9472C15.2677 12.2659 15.5874 12.2516 15.9063 12.223L23.9525 11.5C24.1551 11.484 24.3557 11.5495 24.5098 11.6821C24.6638 11.8147 24.7585 12.0033 24.7728 12.2061C24.7895 12.4112 24.723 12.6144 24.5883 12.7699C24.4537 12.9255 24.2621 13.0204 24.0568 13.0333Z"/>
</svg>
